EESchema Schematic File Version 2
LIBS:power
LIBS:device
LIBS:transistors
LIBS:conn
LIBS:linear
LIBS:regul
LIBS:74xx
LIBS:cmos4000
LIBS:adc-dac
LIBS:memory
LIBS:xilinx
LIBS:microcontrollers
LIBS:dsp
LIBS:microchip
LIBS:analog_switches
LIBS:motorola
LIBS:texas
LIBS:intel
LIBS:audio
LIBS:interface
LIBS:digital-audio
LIBS:philips
LIBS:display
LIBS:cypress
LIBS:siliconi
LIBS:opto
LIBS:atmel
LIBS:contrib
LIBS:valves
LIBS:Zaluzja-cache
EELAYER 25 0
EELAYER END
$Descr A4 11693 8268
encoding utf-8
Sheet 1 1
Title ""
Date ""
Rev ""
Comp ""
Comment1 ""
Comment2 ""
Comment3 ""
Comment4 ""
$EndDescr
$Comp
L ATTINY85-20PU U1
U 1 1 5C6A75FC
P 5800 4150
F 0 "U1" H 4650 4550 50  0000 C CNN
F 1 "ATTINY85-20PU" H 6800 3750 50  0000 C CNN
F 2 "Housings_DIP:DIP-8_W7.62mm" H 6800 4150 50  0001 C CIN
F 3 "" H 5800 4150 50  0001 C CNN
	1    5800 4150
	1    0    0    -1  
$EndComp
$Comp
L R R1
U 1 1 5C6A766F
P 4100 4400
F 0 "R1" V 4180 4400 50  0000 C CNN
F 1 "10k" V 4100 4400 50  0000 C CNN
F 2 "Resistors_THT:R_Axial_DIN0204_L3.6mm_D1.6mm_P7.62mm_Horizontal" V 4030 4400 50  0001 C CNN
F 3 "" H 4100 4400 50  0001 C CNN
	1    4100 4400
	0    1    1    0   
$EndComp
$Comp
L CONN_01X03_MALE Servo1
U 1 1 5C6A76FA
P 3100 3250
F 0 "Servo1" H 3100 3525 50  0000 C CNN
F 1 "CONN_01X03_MALE" H 3125 2975 50  0000 C CNN
F 2 "Pin_Headers:Pin_Header_Angled_1x03_Pitch2.54mm" H 3100 3450 50  0001 C CNN
F 3 "" H 3100 3450 50  0001 C CNN
	1    3100 3250
	1    0    0    -1  
$EndComp
$Comp
L R R2
U 1 1 5C6A7799
P 4300 2950
F 0 "R2" V 4380 2950 50  0000 C CNN
F 1 "4k7" V 4300 2950 50  0000 C CNN
F 2 "Resistors_THT:R_Axial_DIN0207_L6.3mm_D2.5mm_P7.62mm_Horizontal" V 4230 2950 50  0001 C CNN
F 3 "" H 4300 2950 50  0001 C CNN
	1    4300 2950
	0    1    1    0   
$EndComp
$Comp
L R_PHOTO R3
U 1 1 5C6A78EE
P 3900 2950
F 0 "R3" H 3950 3000 50  0000 L CNN
F 1 "R_PHOTO_(5-10k)" H 3950 2950 50  0000 L TNN
F 2 "discret:R1" V 3950 2700 50  0001 L CNN
F 3 "" H 3900 2900 50  0001 C CNN
	1    3900 2950
	0    -1   -1   0   
$EndComp
$Comp
L TSOP21xx U2
U 1 1 5C6A797A
P 6700 2850
F 0 "U2" H 6300 3150 50  0000 L CNN
F 1 "TSOP2238" H 6300 2550 50  0000 L CNN
F 2 "Opto-Devices:IRReceiver_Vishay_MOLD-3pin" H 6650 2475 50  0001 C CNN
F 3 "" H 7350 3150 50  0000 C CNN
	1    6700 2850
	-1   0    0    1   
$EndComp
$Comp
L +5V #PWR01
U 1 1 5C6A8299
P 7300 3400
F 0 "#PWR01" H 7300 3250 50  0001 C CNN
F 1 "+5V" H 7300 3540 50  0000 C CNN
F 2 "" H 7300 3400 50  0001 C CNN
F 3 "" H 7300 3400 50  0001 C CNN
	1    7300 3400
	1    0    0    -1  
$EndComp
$Comp
L GND #PWR02
U 1 1 5C6A82B9
P 7350 4600
F 0 "#PWR02" H 7350 4350 50  0001 C CNN
F 1 "GND" H 7350 4450 50  0000 C CNN
F 2 "" H 7350 4600 50  0001 C CNN
F 3 "" H 7350 4600 50  0001 C CNN
	1    7350 4600
	1    0    0    -1  
$EndComp
Wire Wire Line
	7150 3900 7300 3900
Wire Wire Line
	7300 3900 7300 3400
Wire Wire Line
	7150 4400 7650 4400
Wire Wire Line
	7350 4400 7350 4600
Wire Wire Line
	6300 2650 6200 2650
Wire Wire Line
	6200 2650 6200 2250
Wire Wire Line
	3500 2250 7650 2250
Wire Wire Line
	7650 2250 7650 4400
Connection ~ 7350 4400
Wire Wire Line
	4850 3050 6300 3050
Wire Wire Line
	6200 3050 6200 3500
Wire Wire Line
	6200 3500 7300 3500
Connection ~ 7300 3500
Wire Wire Line
	4450 2950 4850 2950
Connection ~ 6200 3050
Connection ~ 6200 2250
Wire Wire Line
	6300 2850 5150 2850
Wire Wire Line
	5150 2850 5150 3650
Wire Wire Line
	5150 3650 4350 3650
Wire Wire Line
	4350 3650 4350 3900
Wire Wire Line
	4350 3900 4450 3900
Wire Wire Line
	4100 4100 4450 4100
Wire Wire Line
	4450 4400 4250 4400
Wire Wire Line
	3500 2250 3500 3050
Wire Wire Line
	3500 3050 3400 3050
Wire Wire Line
	4850 3250 3400 3250
Wire Wire Line
	4850 2950 4850 3250
Connection ~ 4850 3050
Wire Wire Line
	4150 2950 4050 2950
Wire Wire Line
	4100 2950 4100 4100
Connection ~ 4100 2950
Wire Wire Line
	3750 2950 3500 2950
Connection ~ 3500 2950
Wire Wire Line
	3400 3450 3600 3450
Wire Wire Line
	3600 3450 3600 4000
Wire Wire Line
	3600 4000 4450 4000
Wire Wire Line
	3800 3250 3800 4400
Wire Wire Line
	3800 4400 3950 4400
Connection ~ 3800 3250
Text Notes 7000 7050 0    394  ~ 0
Wulfix1
$EndSCHEMATC
